<svg width="44" height="30" viewBox="0 0 44 30" fill="none" xmlns="http://www.w3.org/2000/svg">
<line y1="0.679688" x2="44" y2="0.679688" stroke="white"/>
<line y1="14.6172" x2="24" y2="14.6172" stroke="white"/>
<line y1="28.5547" x2="35" y2="28.5547" stroke="white"/>
</svg>
